{
  "Comment": "Parse JH",
  "StartAt": "GetParseList",
  "States": {
    "GetParseList": {
      "Type": "Task",
      "Resource": "arn:aws:lambda:us-east-1:798141692517:function:sir-server-GetParseListFunc-WRQCBKKIFOVJ",
      "Next": "CheckParseListEmpty"
    },
    "CheckParseListEmpty": {
      "Type": "Choice",
      "Choices": [
        {
          "Variable": "$.needParse",
          "BooleanEquals": true,
          "Next": "LoopParseList"
        }
      ],
      "Default": "DefaultEnd"
    },
    "LoopParseList": {
      "Type": "Task",
      "Resource": "arn:aws:lambda:us-east-1:798141692517:function:sir-server-ParseListStepFunc-1VB6Z9I4JQX8M",
      "Next": "CheckLoopComplete"
    },
    "CheckLoopComplete": {
      "Type": "Choice",
      "Choices": [
        {
          "Variable": "$.complete",
          "BooleanEquals": false,
          "Next": "LoopParseList"
        }
      ],
      "Default": "UpdateFileParsed"
    },
    "UpdateFileParsed": {
      "Type": "Task",
      "Resource": "arn:aws:lambda:us-east-1:798141692517:function:sir-server-UpdateParsedStepFunc-8TCZFHG44L49",
      "Next": "CheckLastRun"
    },
    "CheckLastRun": {
      "Type": "Choice",
      "Choices": [
        {
          "Variable": "$.isLastRun",
          "BooleanEquals": false,
          "Next": "GetParseList"
        }
      ],
      "Default": "DefaultEnd"
    },
    "DefaultEnd": {
      "Type": "Succeed"
    }
  }
}
